{
    "testRegex": "((\\.|/*.)(spec|test))\\.js?$",
    "moduleFileExtensions": ["jsx", "js"],  
    "setupFiles": ["<rootDir>/jest.setup.js"],
    "testPathIgnorePatterns": ["/some-path/tests/"],
    "coveragePathIgnorePatterns": ["/node_modules/", "enzyme.js"]
}